%YAML 1.1
%TAG !u! tag:unity3d.com,2011:
--- !u!21 &2100000
Material:
  serializedVersion: 8
  m_ObjectHideFlags: 0
  m_CorrespondingSourceObject: {fileID: 0}
  m_PrefabInstance: {fileID: 0}
  m_PrefabAsset: {fileID: 0}
  m_Name: mat_ztMixtoken_icecream_pink
  m_Shader: {fileID: 4800000, guid: ea1dee7b708a6534786b501d8888fb69, type: 3}
  m_ValidKeywords: []
  m_InvalidKeywords:
  - _SPECULARHIGHLIGHTS_OFF
  m_LightmapFlags: 4
  m_EnableInstancingVariants: 0
  m_DoubleSidedGI: 0
  m_CustomRenderQueue: -1
  stringTagMap: {}
  disabledShaderPasses: []
  m_SavedProperties:
    serializedVersion: 3
    m_TexEnvs:
    - _BumpMap:
        m_Texture: {fileID: 0}
        m_Scale: {x: 1, y: 1}
        m_Offset: {x: 0, y: 0}
    - _DetailAlbedoMap:
        m_Texture: {fileID: 0}
        m_Scale: {x: 1, y: 1}
        m_Offset: {x: 0, y: 0}
    - _DetailMask:
        m_Texture: {fileID: 0}
        m_Scale: {x: 1, y: 1}
        m_Offset: {x: 0, y: 0}
    - _DetailNormalMap:
        m_Texture: {fileID: 0}
        m_Scale: {x: 1, y: 1}
        m_Offset: {x: 0, y: 0}
    - _EmissionMap:
        m_Texture: {fileID: 0}
        m_Scale: {x: 1, y: 1}
        m_Offset: {x: 0, y: 0}
    - _MainTex:
        m_Texture: {fileID: 0}
        m_Scale: {x: 1, y: 1}
        m_Offset: {x: 0, y: 0}
    - _MetallicGlossMap:
        m_Texture: {fileID: 0}
        m_Scale: {x: 1, y: 1}
        m_Offset: {x: 0, y: 0}
    - _OcclusionMap:
        m_Texture: {fileID: 0}
        m_Scale: {x: 1, y: 1}
        m_Offset: {x: 0, y: 0}
    - _ParallaxMap:
        m_Texture: {fileID: 0}
        m_Scale: {x: 1, y: 1}
        m_Offset: {x: 0, y: 0}
    - _ambOcc:
        m_Texture: {fileID: 0}
        m_Scale: {x: 1, y: 1}
        m_Offset: {x: 0, y: 0}
    - _texcoord2:
        m_Texture: {fileID: 0}
        m_Scale: {x: 1, y: 1}
        m_Offset: {x: 0, y: 0}
    m_Ints: []
    m_Floats:
    - _BumpScale: 0.1
    - _Cutoff: 0.5
    - _DetailNormalMapScale: 1
    - _DstBlend: 0
    - _GlossMapScale: 1
    - _Glossiness: 0.838
    - _GlossyReflections: 1
    - _Metallic: 0.519
    - _Mode: 0
    - _OcclusionStrength: 1
    - _Parallax: 0.02
    - _SmoothnessTextureChannel: 0
    - _SpecularHighlights: 0
    - _SrcBlend: 1
    - _UVSec: 0
    - _ZWrite: 1
    - __dirty: 0
    - _ambOccAmt: 0
    - _fresnelAmt: 1
    - _fresnelColorMix: 1
    - _metallic: 0.49
    - _smoothness: 0
    m_Colors:
    - _Albedo: {r: 0.8773585, g: 0.48420256, b: 0.5726347, a: 0}
    - _Color: {r: 0.68622136, g: 0.5635902, b: 0.8018868, a: 1}
    - _Emission: {r: 0, g: 0, b: 0, a: 0}
    - _EmissionColor: {r: 0, g: 0, b: 0, a: 1}
    - _cFresnel: {r: 0.8588236, g: 0.48235297, b: 0.48627454, a: 0}
    - _fresnelDir: {r: 0, g: -0.5, b: -1.33, a: 0}
    - _xBiasYScaleZPower: {r: -0.1, g: 1, b: 5, a: 0}
  m_BuildTextureStacks: []
