%YAML 1.1
%TAG !u! tag:unity3d.com,2011:
--- !u!21 &2100000
Material:
  serializedVersion: 8
  m_ObjectHideFlags: 0
  m_CorrespondingSourceObject: {fileID: 0}
  m_PrefabInstance: {fileID: 0}
  m_PrefabAsset: {fileID: 0}
  m_Name: mat_digital Glitched grid SHEAR
  m_Shader: {fileID: 4800000, guid: 37fe513b6d0d56b43832d11079ad8fca, type: 3}
  m_ValidKeywords: []
  m_InvalidKeywords:
  - _CURVETOGGLE_ON
  - _FREEZE_ON
  - _PERSPECTIVESPLIT_ON
  m_LightmapFlags: 4
  m_EnableInstancingVariants: 0
  m_DoubleSidedGI: 0
  m_CustomRenderQueue: -1
  stringTagMap: {}
  disabledShaderPasses: []
  m_SavedProperties:
    serializedVersion: 3
    m_TexEnvs:
    - _Albedo:
        m_Texture: {fileID: 2800000, guid: e6ab3d1781c13e242ac06ce6b5f83d7f, type: 3}
        m_Scale: {x: 1, y: 1}
        m_Offset: {x: 0, y: 0}
    - _BigTex:
        m_Texture: {fileID: 2800000, guid: 6e85b7d9a2c96be4f94659122f942452, type: 3}
        m_Scale: {x: 1, y: 1}
        m_Offset: {x: 0, y: 0}
    - _BumpMap:
        m_Texture: {fileID: 0}
        m_Scale: {x: 1, y: 1}
        m_Offset: {x: 0, y: 0}
    - _DetailAlbedoMap:
        m_Texture: {fileID: 2800000, guid: f317a5bebd2b0ac4c96e4f7c1b59a397, type: 3}
        m_Scale: {x: 2, y: 2}
        m_Offset: {x: 0, y: 0}
    - _DetailMask:
        m_Texture: {fileID: 0}
        m_Scale: {x: 1, y: 1}
        m_Offset: {x: 0, y: 0}
    - _DetailNormalMap:
        m_Texture: {fileID: 0}
        m_Scale: {x: 1, y: 1}
        m_Offset: {x: 0, y: 0}
    - _DetailTex:
        m_Texture: {fileID: 0}
        m_Scale: {x: 1, y: 1}
        m_Offset: {x: 0, y: 0}
    - _EmissionMap:
        m_Texture: {fileID: 0}
        m_Scale: {x: 1, y: 1}
        m_Offset: {x: 0, y: 0}
    - _EmissionTex:
        m_Texture: {fileID: 0}
        m_Scale: {x: 1, y: 1}
        m_Offset: {x: 0, y: 0}
    - _EnvMap:
        m_Texture: {fileID: 0}
        m_Scale: {x: 1, y: 1}
        m_Offset: {x: 0, y: 0}
    - _Grid:
        m_Texture: {fileID: 0}
        m_Scale: {x: 1, y: 1}
        m_Offset: {x: 0, y: 0}
    - _MainTex:
        m_Texture: {fileID: 2800000, guid: e6ab3d1781c13e242ac06ce6b5f83d7f, type: 3}
        m_Scale: {x: 1, y: 1}
        m_Offset: {x: 0, y: 0}
    - _MetallicGlossMap:
        m_Texture: {fileID: 0}
        m_Scale: {x: 1, y: 1}
        m_Offset: {x: 0, y: 0}
    - _NormalMap:
        m_Texture: {fileID: 2800000, guid: c04dab43891526e4d900962f1e62370a, type: 3}
        m_Scale: {x: 1, y: 1}
        m_Offset: {x: 0, y: 0}
    - _OcclusionMap:
        m_Texture: {fileID: 2800000, guid: 389d11faabdbcfa4f837b8e5d7466375, type: 3}
        m_Scale: {x: 1, y: 1}
        m_Offset: {x: 0, y: 0}
    - _ParallaxMap:
        m_Texture: {fileID: 0}
        m_Scale: {x: 1, y: 1}
        m_Offset: {x: 0, y: 0}
    - _Ramp:
        m_Texture: {fileID: 0}
        m_Scale: {x: 1, y: 1}
        m_Offset: {x: 0, y: 0}
    - _SmoothMetalEmit:
        m_Texture: {fileID: 2800000, guid: 56a85adfd14d5f74683c3c74b30ed762, type: 3}
        m_Scale: {x: 1, y: 1}
        m_Offset: {x: 0, y: 0}
    - _TextureSample0:
        m_Texture: {fileID: 0}
        m_Scale: {x: 1, y: 1}
        m_Offset: {x: 0, y: 0}
    - _TextureSample1:
        m_Texture: {fileID: 2800000, guid: fabe5bd244d23b745ab8ea0ea5f9a4c5, type: 3}
        m_Scale: {x: 1, y: 1}
        m_Offset: {x: 0, y: 0}
    - _ToonRamp:
        m_Texture: {fileID: 2800000, guid: 49634c3dc9a090346afdf9a04573af0f, type: 3}
        m_Scale: {x: 1, y: 1}
        m_Offset: {x: 0, y: 0}
    - _tex3coord:
        m_Texture: {fileID: 0}
        m_Scale: {x: 1, y: 1}
        m_Offset: {x: 0, y: 0}
    - _texcoord:
        m_Texture: {fileID: 0}
        m_Scale: {x: 1, y: 1}
        m_Offset: {x: 0, y: 0}
    - _texcoord2:
        m_Texture: {fileID: 0}
        m_Scale: {x: 1, y: 1}
        m_Offset: {x: 0, y: 0}
    - _texcoord3:
        m_Texture: {fileID: 0}
        m_Scale: {x: 1, y: 1}
        m_Offset: {x: 0, y: 0}
    m_Ints: []
    m_Floats:
    - _2ndcutoff: -0.65
    - _AOAmount: 1
    - _AddDiagnoalFlip: 0
    - _ArenaEdgeCellPower: 3.83
    - _BumpScale: 0.62
    - _CurveAmount: 5.1
    - _Cutoff: 0.5
    - _DetailNormalMapScale: 1
    - _DiagMultiplier: 0
    - _DiagSize: 0.1
    - _DiagStep: 0.65
    - _DstBlend: 0
    - _Edge: 0.08
    - _EdgeCutoff: 0.54
    - _EdgeFadeMaskRounding: 0.94
    - _EdgeGlowMultiplier: 0.79
    - _EdgeGlowPosition: 0.8
    - _EdgeGlowSize: 0
    - _EdgePosition: 0
    - _EdgeShadowPosition: 0.053
    - _EdgeShadowSize: -0.32
    - _EdgeSmooth: 0.25
    - _EdgeStep: 0.994
    - _EdgeThreshold: 0.54
    - _Edge_StepSize: 0.08
    - _EnvAmount: 0.1
    - _ExtraPerspective: 0.06
    - _ExtraPerspectiveAspect: 0.37
    - _ExtraPerspectiveForeground: 0.04
    - _ExtraPerspectiveThreshold: 0
    - _FadeFromEdgeSmoothness: 0
    - _False: 1.5
    - _FlickerpixelBlend: 1.58
    - _FlippingUVS: 0
    - _Float0: -22.1
    - _Float2: 3
    - _Float3: 0
    - _Float5: 5
    - _FogAmount: 0
    - _FogAmount1: 0
    - _FogCutoutFar: 26.3
    - _FogCutoutNear: -0.93
    - _FogFar: 45.5
    - _FogHigh: 0.63
    - _FogHigh1: 40
    - _FogLow: -7.9
    - _FogNear: 45.9
    - _Freeze: 1
    - _FreezeTime: 67.1
    - _Fresnel2: 0
    - _Fresnel2Exp: 1
    - _FresnelAmount: 0
    - _FresnelExp: 1
    - _FresnelYMax: 1
    - _FresnelYMin: 0
    - _GlossMapScale: 1
    - _Glossiness: 0
    - _GlossyReflections: 0
    - _GridAMT: 0.5058824
    - _GridAMT1: 0
    - _GridFadeStepMax: 0.25
    - _GridFadeStepMin: 0.1
    - _GridFalloffEdgesMultiplier: 0.11
    - _GridID_Multiplier: 1.001
    - _GridRounding: 0.343
    - _GridRoundness: 0.13
    - _GridSize: 0.05
    - _GridSizeSmoothness: 0.01
    - _GridSizeSmoothnessFar: 0
    - _GridSmooth: 0.15
    - _GridStep: 0.06
    - _GridUVLineThreshold: 0.47234184
    - _GridUVOffset: 0
    - _GridUVScale: 50
    - _GridUV_Multiplier: 5.3
    - _GroundglowLine: -0.16
    - _GroundglowLineWidth: 0.25
    - _Keyword0: 0
    - _LightGlow_YCuttoff: 2.27
    - _MaskedNoise: 2.85
    - _MaskedNoiseAdd: 2.56
    - _MaskedNoiseMaskMaxStep: -1.23
    - _MaskedNoiseMaskMinStep: 0.1
    - _MaskedNoiseMaskRounding: 0.0001
    - _MaskedNoise_Pulse: 1
    - _Metallic: 0
    - _Mode: 0
    - _NoiseFade: 3.6795654
    - _NoiseFade1: 0.5
    - _NoiseMultiplier: 0
    - _NoiseMultiplier1: 1
    - _NoiseStep: 0.497932
    - _NormalMapScale: 1
    - _OcclusionStrength: 1
    - _OverallEmissiveBrightness: 0
    - _Parallax: 0.02
    - _PerspectiveHorizonOffset: -4
    - _PerspectiveOn: 0
    - _PerspectiveSplit: 1
    - _PitHighlightHeight: 1.12
    - _PitHighlightSize: 0.01
    - _PitShadowHeight: 0.34
    - _PitShadowPosition: 0.58
    - _Range1: -1
    - _Range2: 1.39
    - _Range2max: 0.54
    - _Range2min: -0.5
    - _Shiny: 0
    - _ShinyAmount: 1
    - _SingleCameraMovementMultiplier: 1
    - _SmoothnessTextureChannel: 0
    - _SpecularHighlights: 0
    - _SrcBlend: 1
    - _Stencil: 3.39
    - _StepPos: 0.15
    - _StepSoftness: 0.15
    - _TimePhase: 0.65
    - _TimePhase_StepSize: 0.08
    - _TimeScale: 0.0000001
    - _True: -0.5
    - _UVSec: 0
    - _Value: 1.5
    - _Xsterp: 0.02
    - _Xsterp1: 0.004
    - _Xsterp2: -5.93
    - _ZWrite: 1
    - __dirty: 0
    - _blendmultiplier: 5
    - _brightpos: -0.56
    - _brightsize: 1.38
    - _combopulse: 0
    - _curveOffset: 0
    - _curveToggle: 1
    - _cutoff: 3.12
    - _cutoff1: 1.52
    - _cutoff2: -0.14
    - _cuttoff1: -0.1
    - _darksize: 0.18
    - _darktpos: -2.88
    - _edgeposition: 0.17
    - _edgeposition_x: 0.06
    - _edgeposition_y: 0.31
    - _edgestep: 0.28235295
    - _edgestepsize: 0.03
    - _emissionMult: 0.52
    - _falloffmultiplier: 3.2222712
    - _falloffsharpness: 2.307683
    - _gradpower: 2.28
    - _gridLineEmission: 0
    - _groundglow_OffsetRollover: 400.06
    - _groundglowline: -102.1
    - _height: 1.08
    - _mask_fadefromarenaedge_softness: 0.94
    - _offsetedge: 1.01
    - _over: 2.26
    - _radius: 0.09
    - _replace1: 1.41
    - _replace2: -0.5
    - _sature: 1
    - _sature1: 1
    - _unknownNegativeamount: -0.01
    - _uvroot: 2
    - _value: 1
    - _verticaloffset: 0
    - _width: 1.56
    - _world_offset_glow: 0.12
    - _x1: 0.5
    - _x2: -1
    - _y1: 0.5
    - _y2: -1
    - _yOffset: -1.74
    - _ysterp: 0.14
    - _zcutoff: -0.21
    m_Colors:
    - _ArenaEdgeColor: {r: 1, g: 1, b: 1, a: 1}
    - _ArenaEdgeFadeOffSet: {r: -1, g: -0.421, b: 0, a: 0}
    - _ArenaEdgeFadeTile: {r: 1, g: 1, b: 0, a: 0}
    - _ArenaEdgeOffSet: {r: 0.1, g: 0.51, b: 0, a: 0}
    - _ArenaEdgeTile: {r: 1, g: 0.78, b: 0, a: 0}
    - _Color: {r: 0.8396226, g: 0.8396226, b: 0.8396226, a: 1}
    - _Color0: {r: 1, g: 0, b: 0, a: 0}
    - _EdgeGlow: {r: 0.67068565, g: 0.6169412, b: 0.8117647, a: 1}
    - _EdgeGrout: {r: 0.1971644, g: 0.16690196, b: 0.29803923, a: 1}
    - _EdgeShadow: {r: 0.42205882, g: 0.37563235, b: 0.574, a: 1}
    - _EmissionColor: {r: 0, g: 0, b: 0, a: 0}
    - _FlashColor: {r: 0, g: 0, b: 0, a: 0}
    - _FogHighFarColor: {r: 0, g: 0, b: 0, a: 1}
    - _FogHighNearColor: {r: 0.7960785, g: 0.6666667, b: 1, a: 1}
    - _FogLowFarColor: {r: 0.20284772, g: 0.11089329, b: 0.26415065, a: 0.8509804}
    - _FogLowNearColor: {r: 0.21099973, g: 0.08951496, b: 0.20673716, a: 0.31764707}
    - _Fresnel2Color: {r: 1, g: 1, b: 1, a: 1}
    - _Fresnel2Dir: {r: 1, g: 0, b: 0, a: 0}
    - _FresnelColor: {r: 1, g: 1, b: 1, a: 1}
    - _FresnelDir: {r: 0, g: 0, b: 1.01, a: 0}
    - _GridColor: {r: 0.24705884, g: 0.23137257, b: 0.3254902, a: 0.62352943}
    - _GridColor3: {r: 0, g: 0, b: 0, a: 0.8509804}
    - _GridColorEdge: {r: 1, g: 0, b: 0, a: 0}
    - _GridColorHoleEdge: {r: 0.03529412, g: 0, b: 0.10980393, a: 1}
    - _GridColorPitDeep: {r: 0.36862746, g: 0.07058823, b: 0.2596873, a: 1}
    - _GridColour1: {r: 0.2945343, g: 0.23921569, b: 0.38431373, a: 1}
    - _GridColour1_base: {r: 1, g: 1, b: 1, a: 1}
    - _GridColour2: {r: 0.09277332, g: 0.07762667, b: 0.142, a: 1}
    - _GridColour3_glow: {r: 0.08098334, g: 0.08745422, b: 0.113000005, a: 1}
    - _GridColour4_glow: {r: 0.191, g: 0.191, b: 0.191, a: 1}
    - _GridColourEdge_Hightlight: {r: 0.38823533, g: 0.3254902, b: 0.6156863, a: 1}
    - _GridColourEdge_Shadow: {r: 0.2927834, g: 0.27224994, b: 0.3584906, a: 1}
    - _GridColourPit_Hightlight: {r: 1, g: 1, b: 1, a: 1}
    - _GridColourPit_Shadow: {r: 1, g: 0, b: 0.37961674, a: 1}
    - _GridEdges: {r: 1, g: 1, b: 1, a: 1}
    - _GridEdgesPit: {r: 1, g: 0, b: 0.5560055, a: 1}
    - _GridOffset: {r: 0.5, g: 0.5, b: 0, a: 0}
    - _GridScale: {r: 1, g: 1, b: 0, a: 0}
    - _GridUVOffset: {r: 0, g: 0, b: 0, a: 0}
    - _Grid_glowColor: {r: 1, g: 1, b: 1, a: 1}
    - _LightGlowShadowed_Fresnel: {r: 0.68235296, g: 0, b: 0.40531528, a: 0.39607844}
    - _LightGlowSource: {r: 0, g: 0.27, b: 1, a: 0}
    - _LightGlow_Fresnel: {r: 0.5568628, g: 0.4392157, b: 0.4392157, a: 1}
    - _NoiseScale: {r: 32, g: 32, b: 0, a: 0}
    - _Offset: {r: 0, g: -0.08, b: -0.27, a: 0}
    - _SubSurfaceFakeColor: {r: 0, g: 0, b: 0, a: 1}
    - _Team: {r: 0, g: 0, b: 0, a: 0}
    - _Vector0: {r: 0.5, g: 0.5, b: 0, a: 0}
    - _Vector1: {r: 1, g: 1, b: 1, a: 0}
    - _Vector2: {r: 0.5, g: 0.5, b: 0, a: 0}
    - _WorldLightDir: {r: -0.35, g: 2.36, b: 52.4, a: 0}
    - _XXXXX: {r: 0.7640123, g: 0.7028302, b: 1, a: 1}
    - _compareminmax: {r: 0.93, g: 1, b: 0, a: 0}
    - _falloffposition: {r: 0.01, g: 0.61, b: 0, a: 0}
    - _gradianttiling: {r: 1, g: 1, b: 0, a: 0}
    - _lineFillSmoothMetal: {r: 0.15, g: 1, b: 0.15, a: 1}
  m_BuildTextureStacks: []
