%YAML 1.1
%TAG !u! tag:unity3d.com,2011:
--- !u!21 &2100000
Material:
  serializedVersion: 8
  m_ObjectHideFlags: 0
  m_CorrespondingSourceObject: {fileID: 0}
  m_PrefabInstance: {fileID: 0}
  m_PrefabAsset: {fileID: 0}
  m_Name: mat_ztCityNight_Floor 1
  m_Shader: {fileID: 4800000, guid: 1703a9912ebd295458ed362365939c52, type: 3}
  m_ValidKeywords: []
  m_InvalidKeywords:
  - _PRID_FOUR
  - _SPECULARHIGHLIGHTS_OFF
  m_LightmapFlags: 4
  m_EnableInstancingVariants: 0
  m_DoubleSidedGI: 0
  m_CustomRenderQueue: -1
  stringTagMap: {}
  disabledShaderPasses: []
  m_SavedProperties:
    serializedVersion: 3
    m_TexEnvs:
    - _Albedo:
        m_Texture: {fileID: 0}
        m_Scale: {x: 1, y: 1}
        m_Offset: {x: 0, y: 0}
    - _BumpMap:
        m_Texture: {fileID: 0}
        m_Scale: {x: 1, y: 1}
        m_Offset: {x: 0, y: 0}
    - _DetailAlbedoMap:
        m_Texture: {fileID: 0}
        m_Scale: {x: 1, y: 1}
        m_Offset: {x: 0, y: 0}
    - _DetailMask:
        m_Texture: {fileID: 0}
        m_Scale: {x: 1, y: 1}
        m_Offset: {x: 0, y: 0}
    - _DetailNormalMap:
        m_Texture: {fileID: 0}
        m_Scale: {x: 1, y: 1}
        m_Offset: {x: 0, y: 0}
    - _EmissionMap:
        m_Texture: {fileID: 0}
        m_Scale: {x: 1, y: 1}
        m_Offset: {x: 0, y: 0}
    - _FoamNoiseTex:
        m_Texture: {fileID: 0}
        m_Scale: {x: 1, y: 1}
        m_Offset: {x: 0, y: 0}
    - _MainTex:
        m_Texture: {fileID: 0}
        m_Scale: {x: 1, y: 1}
        m_Offset: {x: 0, y: 0}
    - _MetallicGlossMap:
        m_Texture: {fileID: 0}
        m_Scale: {x: 1, y: 1}
        m_Offset: {x: 0, y: 0}
    - _Normal:
        m_Texture: {fileID: 2800000, guid: 6aa3dda63b0b14346b3dc856d6b75a8f, type: 3}
        m_Scale: {x: 512, y: 512}
        m_Offset: {x: 0, y: 0}
    - _OcclusionMap:
        m_Texture: {fileID: 0}
        m_Scale: {x: 1, y: 1}
        m_Offset: {x: 0, y: 0}
    - _ParallaxMap:
        m_Texture: {fileID: 0}
        m_Scale: {x: 1, y: 1}
        m_Offset: {x: 0, y: 0}
    - _ReflectionMask:
        m_Texture: {fileID: 0}
        m_Scale: {x: 1, y: 1}
        m_Offset: {x: 0, y: 0}
    - _texcoord:
        m_Texture: {fileID: 0}
        m_Scale: {x: 1, y: 1}
        m_Offset: {x: 0, y: 0}
    m_Ints: []
    m_Floats:
    - _BumpScale: 1
    - _CurveAmount: 1.16
    - _Cutoff: 0.5
    - _DetailNormalMapScale: 1
    - _DstBlend: 0
    - _Float0: 0
    - _FoamDisplacement: 0.6
    - _FoamSize: 0.489
    - _FresnelPower: 5
    - _GlossMapScale: 1
    - _Glossiness: 0.9
    - _GlossyReflections: 1
    - _Metallic: 0.9
    - _Metallicness: 0
    - _Mode: 0
    - _NormalScale: 0.107
    - _OcclusionStrength: 1
    - _PRID: 3
    - _Parallax: 0.02
    - _ReflectionIntensity: 0.085
    - _Reflectivity: 0.5
    - _Smoothness: 1
    - _SmoothnessTextureChannel: 0
    - _SpecularHighlights: 0
    - _SrcBlend: 1
    - _UVSec: 0
    - _ZWrite: 1
    - __dirty: 0
    - _fresnelAmt: 0
    - _fresnelColorMix: 0
    - _metallic: 0
    - _smoothness: 0
    - _unknownNegativeamount: -0.01
    m_Colors:
    - _AlbedoColor: {r: 0.20483543, g: 0.06145063, b: 0.13655695, a: 1}
    - _Color: {r: 0.6, g: 0.5372549, b: 0.5647059, a: 1}
    - _Emission: {r: 0, g: 0, b: 0, a: 0}
    - _EmissionColor: {r: 0, g: 0, b: 0, a: 1}
    - _FoamColor: {r: 1, g: 1, b: 1, a: 1}
    - _cFresnel: {r: 0.59607846, g: 0.30980393, b: 0.5764706, a: 1}
    - _fresnelDir: {r: 1, g: 1, b: -0.45, a: 0}
    - _xBiasYScaleZPower: {r: 0, g: 1, b: 5, a: 0}
  m_BuildTextureStacks: []
