%YAML 1.1
%TAG !u! tag:unity3d.com,2011:
--- !u!21 &2100000
Material:
  serializedVersion: 8
  m_ObjectHideFlags: 0
  m_CorrespondingSourceObject: {fileID: 0}
  m_PrefabInstance: {fileID: 0}
  m_PrefabAsset: {fileID: 0}
  m_Name: zt_skyboxForest
  m_Shader: {fileID: 4800000, guid: b93f8877d46edc646a99983ac9eb681a, type: 3}
  m_ValidKeywords: []
  m_InvalidKeywords:
  - _SUNDISK_HIGH_QUALITY
  m_LightmapFlags: 4
  m_EnableInstancingVariants: 0
  m_DoubleSidedGI: 0
  m_CustomRenderQueue: -1
  stringTagMap: {}
  disabledShaderPasses: []
  m_SavedProperties:
    serializedVersion: 3
    m_TexEnvs:
    - _BumpMap:
        m_Texture: {fileID: 0}
        m_Scale: {x: 1, y: 1}
        m_Offset: {x: 0, y: 0}
    - _DetailAlbedoMap:
        m_Texture: {fileID: 0}
        m_Scale: {x: 1, y: 1}
        m_Offset: {x: 0, y: 0}
    - _DetailMask:
        m_Texture: {fileID: 0}
        m_Scale: {x: 1, y: 1}
        m_Offset: {x: 0, y: 0}
    - _DetailNormalMap:
        m_Texture: {fileID: 0}
        m_Scale: {x: 1, y: 1}
        m_Offset: {x: 0, y: 0}
    - _EmissionMap:
        m_Texture: {fileID: 0}
        m_Scale: {x: 1, y: 1}
        m_Offset: {x: 0, y: 0}
    - _MainTex:
        m_Texture: {fileID: 0}
        m_Scale: {x: 1, y: 1}
        m_Offset: {x: 0, y: 0}
    - _MetallicGlossMap:
        m_Texture: {fileID: 0}
        m_Scale: {x: 1, y: 1}
        m_Offset: {x: 0, y: 0}
    - _OcclusionMap:
        m_Texture: {fileID: 0}
        m_Scale: {x: 1, y: 1}
        m_Offset: {x: 0, y: 0}
    - _ParallaxMap:
        m_Texture: {fileID: 0}
        m_Scale: {x: 1, y: 1}
        m_Offset: {x: 0, y: 0}
    m_Ints: []
    m_Floats:
    - _AtmosphereThickness: 1
    - _BumpScale: 1
    - _Cutoff: 0.5
    - _DetailNormalMapScale: 1
    - _DstBlend: 0
    - _Exponent1: 1
    - _Exponent2: 1
    - _Exposure: 0.16
    - _GlossMapScale: 1
    - _Glossiness: 0.5
    - _GlossyReflections: 1
    - _HorizonLevel: 0
    - _Intensity: 1
    - _Metallic: 0
    - _Mode: 0
    - _OcclusionStrength: 1
    - _Parallax: 0.02
    - _SmoothnessTextureChannel: 0
    - _SpecularHighlights: 1
    - _SrcBlend: 1
    - _SunAlpha: 550
    - _SunAltitude: 38
    - _SunAzimuth: 20
    - _SunBeta: 1
    - _SunDisk: 2
    - _SunIntensity: 1
    - _SunSize: 0
    - _SunSizeConvergence: 1
    - _UVSec: 0
    - _ZWrite: 1
    m_Colors:
    - _Color: {r: 1, g: 1, b: 1, a: 1}
    - _Color1: {r: 0.01547168, g: 0.03773582, b: 0, a: 0}
    - _Color2: {r: 0.54031765, g: 0.574, b: 0.38687602, a: 0}
    - _Color3: {r: 0.4156863, g: 0.44705886, b: 0.27058825, a: 0}
    - _EmissionColor: {r: 0, g: 0, b: 0, a: 1}
    - _GroundColor: {r: 0.41568628, g: 0.44705883, b: 0.27058825, a: 1}
    - _SkyTint: {r: 0.32186875, g: 0.7830189, b: 0, a: 1}
    - _SunColor: {r: 0.18395825, g: 0.31132078, b: 0.09545213, a: 1}
    - _SunVector: {r: 0.269, g: 0.615, b: 0.74, a: 0}
  m_BuildTextureStacks: []
