%YAML 1.1
%TAG !u! tag:unity3d.com,2011:
--- !u!21 &2100000
Material:
  serializedVersion: 6
  m_ObjectHideFlags: 0
  m_CorrespondingSourceObject: {fileID: 0}
  m_PrefabInstance: {fileID: 0}
  m_PrefabAsset: {fileID: 0}
  m_Name: Mat_City_EnvStory
  m_Shader: {fileID: 4800000, guid: 7f8267ef33bba1b46ae01582aab5707c, type: 3}
  m_ShaderKeywords: _GLOSSYREFLECTIONS_OFF _PERSPECTIVEON_ON _USEFOG_ON
  m_LightmapFlags: 0
  m_EnableInstancingVariants: 0
  m_DoubleSidedGI: 0
  m_CustomRenderQueue: -1
  stringTagMap: {}
  disabledShaderPasses: []
  m_SavedProperties:
    serializedVersion: 3
    m_TexEnvs:
    - _BigTex:
        m_Texture: {fileID: 2800000, guid: 389d11faabdbcfa4f837b8e5d7466375, type: 3}
        m_Scale: {x: 1, y: 1}
        m_Offset: {x: 0, y: 0}
    - _BumpMap:
        m_Texture: {fileID: 2800000, guid: c04dab43891526e4d900962f1e62370a, type: 3}
        m_Scale: {x: 1, y: 1}
        m_Offset: {x: 0, y: 0}
    - _DetailAlbedoMap:
        m_Texture: {fileID: 2800000, guid: f317a5bebd2b0ac4c96e4f7c1b59a397, type: 3}
        m_Scale: {x: 2, y: 2}
        m_Offset: {x: 0, y: 0}
    - _DetailMask:
        m_Texture: {fileID: 0}
        m_Scale: {x: 1, y: 1}
        m_Offset: {x: 0, y: 0}
    - _DetailNormalMap:
        m_Texture: {fileID: 0}
        m_Scale: {x: 1, y: 1}
        m_Offset: {x: 0, y: 0}
    - _DetailTex:
        m_Texture: {fileID: 2800000, guid: 6d9c5e59743d54849879c1ee15068aa0, type: 3}
        m_Scale: {x: 4, y: 4}
        m_Offset: {x: -0.57, y: -0.06}
    - _EmissionMap:
        m_Texture: {fileID: 0}
        m_Scale: {x: 1, y: 1}
        m_Offset: {x: 0, y: 0}
    - _EmissionTex:
        m_Texture: {fileID: 0}
        m_Scale: {x: 1, y: 1}
        m_Offset: {x: 0, y: 0}
    - _EnvMap:
        m_Texture: {fileID: 0}
        m_Scale: {x: 1, y: 1}
        m_Offset: {x: 0, y: 0}
    - _MainTex:
        m_Texture: {fileID: 2800000, guid: e87c3cdd775f0584fb996376e5f1d2bb, type: 3}
        m_Scale: {x: 1, y: 1}
        m_Offset: {x: 0, y: 0}
    - _MetallicGlossMap:
        m_Texture: {fileID: 0}
        m_Scale: {x: 1, y: 1}
        m_Offset: {x: 0, y: 0}
    - _NRM:
        m_Texture: {fileID: 2800000, guid: c04dab43891526e4d900962f1e62370a, type: 3}
        m_Scale: {x: 1, y: 1}
        m_Offset: {x: 0, y: 0}
    - _NormalMap:
        m_Texture: {fileID: 2800000, guid: c04dab43891526e4d900962f1e62370a, type: 3}
        m_Scale: {x: 1, y: 1}
        m_Offset: {x: 0, y: 0}
    - _OcclusionMap:
        m_Texture: {fileID: 2800000, guid: 389d11faabdbcfa4f837b8e5d7466375, type: 3}
        m_Scale: {x: 1, y: 1}
        m_Offset: {x: 0, y: 0}
    - _ParallaxMap:
        m_Texture: {fileID: 0}
        m_Scale: {x: 1, y: 1}
        m_Offset: {x: 0, y: 0}
    - _Ramp:
        m_Texture: {fileID: 0}
        m_Scale: {x: 1, y: 1}
        m_Offset: {x: 0, y: 0}
    - _SmoothMetalEmit:
        m_Texture: {fileID: 2800000, guid: 56a85adfd14d5f74683c3c74b30ed762, type: 3}
        m_Scale: {x: 1, y: 1}
        m_Offset: {x: 0, y: 0}
    - _SmothMetalEmitMap:
        m_Texture: {fileID: 0}
        m_Scale: {x: 1, y: 1}
        m_Offset: {x: 0, y: 0}
    - _TextureSample0:
        m_Texture: {fileID: 2800000, guid: 389d11faabdbcfa4f837b8e5d7466375, type: 3}
        m_Scale: {x: 1, y: 1}
        m_Offset: {x: 0, y: 0}
    - _ToonRamp:
        m_Texture: {fileID: 2800000, guid: 49634c3dc9a090346afdf9a04573af0f, type: 3}
        m_Scale: {x: 1, y: 1}
        m_Offset: {x: 0, y: 0}
    - _texcoord:
        m_Texture: {fileID: 0}
        m_Scale: {x: 1, y: 1}
        m_Offset: {x: 0, y: 0}
    - _texcoord2:
        m_Texture: {fileID: 0}
        m_Scale: {x: 1, y: 1}
        m_Offset: {x: 0, y: 0}
    - _texcoord3:
        m_Texture: {fileID: 0}
        m_Scale: {x: 1, y: 1}
        m_Offset: {x: 0, y: 0}
    m_Floats:
    - _AOAmount: 1
    - _ASEOutlineWidth: 0.04
    - _BumpScale: 0.62
    - _Cutoff: 0.5
    - _DetailNormalMapScale: 1
    - _DstBlend: 0
    - _EdgeGlowPosition: 0.5
    - _EdgeGlowSize: 0.1
    - _EdgeShadowPosition: 0.5
    - _EdgeShadowSize: 0.1
    - _EnvAmount: 0.1
    - _ExtraPerspective: 0.015
    - _ExtraPerspectiveAspect: 0.45
    - _ExtraPerspectiveForeground: 0
    - _ExtraPerspectiveThreshold: 0
    - _FakeEmissiveAmt: 0
    - _FakeEmissiveCutoffMax: 0.61
    - _FakeEmissiveCutoffMin: 0.61
    - _FogAmount: 1
    - _FogCutoutFar: 18
    - _FogCutoutNear: 9.8
    - _FogFar: 47.3
    - _FogHigh: 1
    - _FogLow: 0
    - _FogNear: 0
    - _Fresnel1: 0
    - _Fresnel1Multiplier: 0
    - _Fresnel1Power: 0
    - _Fresnel2: 0
    - _Fresnel2Exp: 1
    - _Fresnel2Multiplier: 0
    - _Fresnel2Power: 0
    - _FresnelAmount: 0
    - _FresnelExp: 1
    - _FresnelYMax: 1
    - _FresnelYMin: 0
    - _GlobalDim: 0.9
    - _GlossMapScale: 1
    - _Glossiness: 0
    - _GlossyReflections: 0
    - _GridRounding: 0
    - _GridSize: 0
    - _GridSizeSmoothness: 0
    - _LightingOursTheirs: 0
    - _LightingOursTheres: 1
    - _MaskedNoiseAdd: 5
    - _MaskedNoiseMaskRounding: 1
    - _MaskedNoise_Pulse: 0
    - _Metallic: 0
    - _Mode: 0
    - _NormalMapScale: 1
    - _OcclusionStrength: 1
    - _Offset: 0
    - _Parallax: 0.02
    - _PerspectiveHorizonOffset: 1.68
    - _PerspectiveOn: 1
    - _PerspectiveSplit: 0
    - _RotAngle: 0
    - _Shiny: 0
    - _ShinyAmount: 1
    - _SingleCameraMovementMultiplier: 1
    - _SmoothnessTextureChannel: 0
    - _SpecularHighlights: 0
    - _SrcBlend: 1
    - _Stencil: 3.39
    - _UVSec: 0
    - _Unlit: 0
    - _UseFakeEmissive: 0
    - _UseFog: 1
    - _UseUV1Albedo: 0
    - _WaterLine: 0
    - _ZWrite: 1
    - __dirty: 0
    - _light: 1
    - _minz: 0
    - _softness: 0
    - _yOffset: -500
    m_Colors:
    - _ASEOutlineColor: {r: 1, g: 0, b: 0, a: 0}
    - _AlbedoOffset: {r: 0, g: 0, b: 0, a: 0}
    - _AlbedoTiling: {r: 1, g: 1, b: 0, a: 0}
    - _ArenaEdgeFadeOffSet: {r: 0, g: 0, b: 0, a: 0}
    - _ArenaEdgeFadeTile: {r: 0, g: 0, b: 0, a: 0}
    - _Color: {r: 0.735849, g: 0.735849, b: 0.735849, a: 1}
    - _EdgeDarkenRange: {r: 0.25, g: 0.64, b: 0, a: 0}
    - _EdgeDarkenRange1: {r: 0.25, g: 0.64, b: 0, a: 0}
    - _EdgeGlow: {r: 0, g: 0, b: 0, a: 0}
    - _EdgeGrout: {r: 0, g: 0, b: 0, a: 0}
    - _EdgeShadow: {r: 0, g: 0, b: 0, a: 0}
    - _EmissionColor: {r: 0, g: 0, b: 0, a: 0}
    - _EmissionColour: {r: 0, g: 0, b: 0, a: 0}
    - _EmissiveColor: {r: 0, g: 0, b: 0, a: 0}
    - _FlashColor: {r: 0, g: 0, b: 0, a: 0}
    - _FogHighFarColor: {r: 0.8352942, g: 0.9294118, b: 0.9568628, a: 1}
    - _FogHighNearColor: {r: 0.8000001, g: 0.8980393, b: 0.94117653, a: 1}
    - _FogLowFarColor: {r: 0.68235296, g: 0.8431373, b: 0.90196085, a: 1}
    - _FogLowNearColor: {r: 0.645, g: 0.91494805, b: 1, a: 0.6745098}
    - _Fresnel1Dir: {r: 0, g: 0, b: 0, a: 0}
    - _Fresnel2Color: {r: 1, g: 1, b: 1, a: 1}
    - _Fresnel2Dir: {r: 1, g: 0, b: 0, a: 0}
    - _FresnelColor: {r: 1, g: 1, b: 1, a: 1}
    - _FresnelDir: {r: 0, g: 0, b: 1.01, a: 0}
    - _GridColour1: {r: 0.6470588, g: 0.6039216, b: 0.7529413, a: 1}
    - _GridColour2: {r: 0.2627958, g: 0.249199, b: 0.3018868, a: 1}
    - _SpecColor: {r: 1, g: 1, b: 1, a: 1}
    - _SubSurfaceFakeColor: {r: 0, g: 0, b: 0, a: 1}
    - _Team: {r: 0, g: 0, b: 0, a: 0}
    - _WaterEdgeColor: {r: 0, g: 0, b: 0, a: 0}
